…
    ## ✓ ggplot2 3.3.2     ✓ purrr   0.3.4
    ## ✓ tibble  3.0.4     ✓ dplyr   1.0.2
    ## ✓ tidyr   1.1.2     ✓ stringr 1.4.0
    ## ✓ readr   1.4.0     ✓ forcats 0.5.0

    ## ── Conflicts ────────────────────────────────────────── tidyverse_conflicts() ──
    ## x dplyr::filter() masks stats::filter()
    ## x dplyr::lag()    masks stats::lag()

``` r
(iris <- as_tibble(iris))
```

    ## # A tibble: 150 x 5
    ##    Sepal.Length Sepal.Width Petal.Length Petal.Width Species
    ##           <dbl>       <dbl>        <dbl>       <dbl> <fct>  
    ##  1          5.1         3.5          1.4         0.2 setosa 
    ##  2          4.9         3            1.4         0.2 setosa 
    ##  3          4.7         3.2          1.3         0.2 setosa 
    ##  4          4.6         3.1          1.5         0.2 setosa 
    ##  5          5           3.6          1.4         0.2 setosa 
    ##  6          5.4         3.9          1.7         0.4 setosa 
    ##  7          4.6         3.4          1.4         0.3 setosa 
    ##  8          5           3.4          1.5         0.2 setosa 
    ##  9          4.4         2.9          1.4         0.2 setosa 
    ## 10          4.9         3.1          1.5         0.1 setosa 
    ## # … with 140 more rows
…
Rename each variable so that it is all lower-case and uses an underscore
\_ instead of a period . in the name (the recommended coding style in
the tidyverse style guide). Print the resulting table.

``` r
(i2 <- rename(iris,
       sepal_length = Sepal.Length,
       sepal_width = Sepal.Width,
       petal_length = Petal.Length,
       petal_width = Petal.Width,
       species = Species))
```

    ## # A tibble: 150 x 5
    ##    sepal_length sepal_width petal_length petal_width species
    ##           <dbl>       <dbl>        <dbl>       <dbl> <fct>  
    ##  1          5.1         3.5          1.4         0.2 setosa 
    ##  2          4.9         3            1.4         0.2 setosa 
    ##  3          4.7         3.2          1.3         0.2 setosa 
    ##  4          4.6         3.1          1.5         0.2 setosa 
    ##  5          5           3.6          1.4         0.2 setosa 
    ##  6          5.4         3.9          1.7         0.4 setosa 
    ##  7          4.6         3.4          1.4         0.3 setosa 
    ##  8          5           3.4          1.5         0.2 setosa 
    ##  9          4.4         2.9          1.4         0.2 setosa 
    ## 10          4.9         3.1          1.5         0.1 setosa 
    ## # … with 140 more rows
> Question 2

Convert the four numerical variables from cm to mm by multiplying by 10.
Print the resulting table.

``` r
(i2_mm <- transmute(i2, 
       sepal_length_mm = sepal_length * 10,
       sepal_width_mm = sepal_width * 10,
       petal_length_mm = petal_length * 10,
       petal_width_mm = petal_width * 10,
       species = species))
```

    ## # A tibble: 150 x 5
    ##    sepal_length_mm sepal_width_mm petal_length_mm petal_width_mm species
    ##              <dbl>          <dbl>           <dbl>          <dbl> <fct>  
    ##  1              51             35              14              2 setosa 
    ##  2              49             30              14              2 setosa 
    ##  3              47             32              13              2 setosa 
    ##  4              46             31              15              2 setosa 
    ##  5              50             36              14              2 setosa 
    ##  6              54             39              17              4 setosa 
    ##  7              46             34              14              3 setosa 
    ##  8              50             34              15              2 setosa 
    ##  9              44             29              14              2 setosa 
    ## 10              49             31              15              1 setosa 
    ## # … with 140 more rows

> Question 3

Calculate sepal area and petal area (area is equal to length multiplied
by width). Print a table with only the variables sepal area, petal area,
and species.

``` r
(areas <- transmute(i2_mm,
                      sepal_area = sepal_length_mm * sepal_width_mm,
                      petal_area = petal_length_mm * petal_width_mm,
                    species = species))
```

    ## # A tibble: 150 x 3
    ##    sepal_area petal_area species
    ##         <dbl>      <dbl> <fct>  
    ##  1       1785         28 setosa 
    ##  2       1470         28 setosa 
    ##  3       1504         26 setosa 
    ##  4       1426         30 setosa 
    ##  5       1800         28 setosa 
    ##  6       2106         68 setosa 
    ##  7       1564         42 setosa 
    ##  8       1700         30 setosa 
    ##  9       1276         28 setosa 
    ## 10       1519         15 setosa 
    ## # … with 140 more rows
…
